{
  "confirmPassword": {
    "errorRequired": {
      "es": "El campo #label es requerido",
      "en": "El campo #label es requerido"
    },
    "errorStrength": {
      "es": "El campo #label es inseguro",
      "en": "Your password is not strong"
    },
    "errorStrength2": {
      "es": "Las contraseñas son inseguras",
      "en": "Your password is not strong"
    },
    "errorConfirm": {
      "es": "Falta la confirmación de la contraseña",
      "en": "Password confirmation is missing"
    },
    "errorConfirm2": {
      "es": "La confirmación de la contraseña es requerida",
      "en": "Password confirmation is required"
    },
    "errorConfirm3": {
      "es": "La contraseña debe contener al menos #min caracteres",
      "en": "La contraseña debe contener al menos #min caracteres"
    },
    "errorNotMatch": {
      "es": "Las contraseñas no coinciden",
      "en": "Passwords do not match"
    },
    "errorMinCharacters": {
      "es": "El campo #label debe contener al menos #min caracteres",
      "en": "El campo #label debe contener al menos #min caracteres"
    },
    "labelConfirm": {
      "es": "Confirmar contraseña *",
      "en": "Password confirmation *"
    }
  },
  "creditCard": {
    "errorRequired": {
      "es": "El campo #label es requerido",
      "en": "El campo #label es requerido"
    },
    "errorNumberCharacters": {
      "es": "El campo #label debe contener #number números",
      "en": "El campo #label debe contener #number números"
    },
    "errorInvalidCharacters": {
      "es": "El campo #label contiene caracteres no validos",
      "en": "The #label field contains invalid characters"
    }
  },
  "date": {
    "errorRequired": {
      "es": "El campo #label es requerido",
      "en": "El campo #label es requerido"
    }
  },
  "dropdown": {
    "errorRequired": {
      "es": "El campo #label es requerido",
      "en": "El campo #label es requerido"
    },
    "resultsMessage": {
      "es": "No se encontraron resultados",
      "en": "No results found"
    }
  },
  "email": {
    "errorRequired": {
      "es": "El campo #label es requerido",
      "en": "El campo #label es requerido"
    },
    "errorFormat": {
      "es": "El correo electrónico no tiene un formato correcto",
      "en": "El correo electrónico no tiene un formato correcto"
    }
  },
  "file": {
    "errorRequired": {
      "es": "El campo #label es requerido",
      "en": "El campo #label es requerido"
    },
    "errorMaxSize": {
      "es": "El tamaño del archivo debe ser menor o igual a #maxSize",
      "en": "The file size must be less than or equal to #maxSize"
    },
    "placeHolder": {
      "es": "Tamaño de archivo excedido",
      "en": "File size exceeded"
    },
    "errorFormat": {
      "es": "El campo #label no tiene un formato valido",
      "en": "The #label field does not have a valid format"
    },
    "placeHolder2": {
      "es": "La extensión #format no esta permitida",
      "en": "The #format extension is not allowed"
    }
  },
  "numeric": {
    "errorRequired": {
      "es": "El campo #label es requerido",
      "en": "El campo #label es requerido"
    },
    "errorFormat": {
      "es": "El campo #label no tiene un formato valido",
      "en": "The #label field does not have a valid format"
    },
    "errorMinCharacters": {
      "es": "El campo #label debe contener al menos #min números",
      "en": "El campo #label debe contener al menos #min números"
    },
    "errorNumberCharacters": {
      "es": "El campo #label debe contener #number números",
      "en": "El campo #label debe contener #number números"
    },
    "errorInvalidCharacters": {
      "es": "El campo #label contiene caracteres no validos",
      "en": "The #label field contains invalid characters"
    }
  },
  "radio": {
    "errorRequired": {
      "es": "El campo #label es requerido",
      "en": "El campo #label es requerido"
    },
    "errorFormat": {
      "es": "El correo electrónico no tiene un formato correcto",
      "en": "El correo electrónico no tiene un formato correcto"
    }
  },
  "textArea": {
    "errorRequired": {
      "es": "El campo #label es requerido",
      "en": "El campo #label es requerido"
    }
  },
  "text": {
    "errorRequired": {
      "es": "El campo #label es requerido",
      "en": "El campo #label es requerido"
    }
  }
}
